<svg id="Grupo_22559" data-name="Grupo 22559" xmlns="http://www.w3.org/2000/svg" width="39.988" height="56" viewBox="0 0 39.988 56">
  <g id="marcador-de-posicion_1_" data-name="marcador-de-posicion (1)" transform="translate(6.446 18.663)">
    <g id="Grupo_22161" data-name="Grupo 22161">
      <g id="Grupo_22160" data-name="Grupo 22160">
        <path id="Trazado_18460" data-name="Trazado 18460" d="M81.678,0A5.75,5.75,0,0,0,76,5.807a5.893,5.893,0,0,0,.848,3.054l4.507,7.428a.471.471,0,0,0,.4.229h0a.471.471,0,0,0,.4-.235l4.392-7.5a5.9,5.9,0,0,0,.8-2.975A5.75,5.75,0,0,0,81.678,0Zm4.065,8.285L81.75,15.1l-4.1-6.753a4.915,4.915,0,0,1-.712-2.544,4.737,4.737,0,1,1,9.473,0A4.918,4.918,0,0,1,85.743,8.285Z" transform="translate(-76 0)" fill="#fff"/>
      </g>
    </g>
    <g id="Grupo_22163" data-name="Grupo 22163" transform="translate(2.738 2.884)">
      <g id="Grupo_22162" data-name="Grupo 22162">
        <path id="Trazado_18461" data-name="Trazado 18461" d="M168.94,90a2.94,2.94,0,1,0,2.94,2.94A2.943,2.943,0,0,0,168.94,90Zm0,4.906A1.966,1.966,0,1,1,170.9,92.94,1.968,1.968,0,0,1,168.94,94.906Z" transform="translate(-166 -90)" fill="#fff"/>
      </g>
    </g>
  </g>
  <path id="Trazado_20177" data-name="Trazado 20177" d="M1.868,0A21.473,21.473,0,0,0,12.73,28.358l3.434-7.7a13.043,13.043,0,0,1-6.6-17.226Z" transform="translate(39.988 20.052) rotate(135)" fill="#40ffb7"/>
  <circle id="Elipse_4680" data-name="Elipse 4680" cx="16.165" cy="16.165" r="16.165" transform="translate(0 23.671)" fill="#3229e5"/>
  <text id="_2" data-name="2" transform="translate(0 26.702)" fill="#fff" font-size="20" font-family="Poppins-Bold, Poppins" font-weight="700" style="isolation: isolate"><tspan x="10.455" y="21">2</tspan></text>
</svg>
