<svg xmlns="http://www.w3.org/2000/svg" width="21.841" height="21.851" viewBox="0 0 21.841 21.851">
  <g id="XMLID_1558_" transform="translate(-0.119 0.001)">
    <g id="XMLID_598_" transform="translate(0.119 -0.001)">
      <path id="XMLID_602_" d="M21.9,15.5a1.524,1.524,0,0,0-.823-1.036,1.448,1.448,0,0,0-.676-.136,2.553,2.553,0,0,0,.052-.514,2.091,2.091,0,0,0-1.92-2.223A1.845,1.845,0,0,0,17,12.473a1.845,1.845,0,0,0-1.532-.885,1.708,1.708,0,0,0-.925.276l4.131-4.131a.427.427,0,0,0,0-.6L18.346,6.8l1.714-3.266a.427.427,0,0,0-.076-.5L19.752,2.8,21.824.728a.427.427,0,0,0-.6-.6L19.149,2.2l-.231-.231a.427.427,0,0,0-.5-.076L15.152,3.6l-.311-.311a.427.427,0,0,0-.6,0l-8.16,8.16a1.854,1.854,0,0,0-2.371.207l-.4.4a.427.427,0,0,0,0,.6l1.42,1.42-.655.655a.427.427,0,0,0-.125.3v.974L2.932,17.027l-.386-.386a1.422,1.422,0,0,0-2.011,2.01l.033.033a.427.427,0,0,0,.6-.6l-.033-.033a.568.568,0,0,1,.8-.8l2.782,2.782a.568.568,0,1,1-.8.8L3.888,20.8a.427.427,0,1,0-.6.6l.033.033a1.422,1.422,0,0,0,2.01-2.01l-.386-.386,1.015-1.015h.974a.427.427,0,0,0,.3-.125l.655-.655,1.42,1.42a.427.427,0,0,0,.6,0l.4-.4a1.854,1.854,0,0,0,.207-2.371l3.426-3.426a2.445,2.445,0,0,0-.392,1.344,2.553,2.553,0,0,0,.052.514,1.448,1.448,0,0,0-.675.136,1.786,1.786,0,0,0-.673,2.416A2.052,2.052,0,0,0,13.294,17.9a2.489,2.489,0,0,0,3.4,3.53.571.571,0,0,1,.628,0,2.592,2.592,0,0,0,1.416.416h0a2.52,2.52,0,0,0,2.452-2.433,2.49,2.49,0,0,0-.471-1.512l.071-.031A2.136,2.136,0,0,0,21.9,15.5ZM6.7,12.035,7.785,10.95l.762.762a.427.427,0,0,0,.6-.6l-.762-.762L9.474,9.262l.762.762a.427.427,0,0,0,.616-.59h4.918L9.934,15.269ZM18.536,2.791l.622.622L17.713,6.165l-1.93-1.93Zm-4,1.406,3.233,3.233-1.15,1.15H10.156l1.006-1.006.135.135a.427.427,0,1,0,.6-.6l-.135-.135L12.85,5.886l.762.762a.427.427,0,1,0,.6-.6l-.762-.762ZM6.754,17.169H5.78a.427.427,0,0,0-.3.125l-1.14,1.14-.8-.8,1.14-1.14a.427.427,0,0,0,.125-.3v-.974l.53-.53,1.954,1.954Zm2.953.49-.1.1-5.4-5.4.1-.1a1,1,0,0,1,1.411,0l3.986,3.986a1,1,0,0,1,0,1.411Zm8.829-5.218A1.248,1.248,0,0,1,19.6,13.81a1.248,1.248,0,0,1-1.066,1.369A1.248,1.248,0,0,1,17.47,13.81,1.248,1.248,0,0,1,18.536,12.441Zm-3.065,0a1.248,1.248,0,0,1,1.066,1.369,1.248,1.248,0,0,1-1.066,1.369,1.248,1.248,0,0,1-1.066-1.369A1.248,1.248,0,0,1,15.471,12.441Zm-2.444,4.073a.958.958,0,0,1,.264-1.281.6.6,0,0,1,.255-.056.79.79,0,0,1,.338.081,1.213,1.213,0,0,1,.561.589h0a1.214,1.214,0,0,1,.1.808.687.687,0,0,1-.359.473.958.958,0,0,1-1.155-.614ZM18.745,21a1.628,1.628,0,0,1-.954-.273,1.415,1.415,0,0,0-1.575,0,1.636,1.636,0,1,1-1.6-2.843,1.441,1.441,0,0,0,.8-.967,1.636,1.636,0,0,1,3.179,0,1.441,1.441,0,0,0,.8.967A1.636,1.636,0,0,1,18.745,21Zm2.234-4.482a1.213,1.213,0,0,1-.561.589.639.639,0,0,1-.952-.447,1.284,1.284,0,0,1,.656-1.4.79.79,0,0,1,.338-.081.6.6,0,0,1,.255.056.687.687,0,0,1,.359.473A1.213,1.213,0,0,1,20.98,16.514Z" transform="translate(-0.119 0.001)"/>
      <path id="XMLID_1347_" d="M39.967,452.582a.427.427,0,1,0,.3.125A.43.43,0,0,0,39.967,452.582Z" transform="translate(-37.858 -433.267)"/>
    </g>
  </g>
</svg>
