<svg xmlns="http://www.w3.org/2000/svg" width="72" height="64" viewBox="0 0 72 64">
  <g id="Grupo_22782" data-name="Grupo 22782" transform="translate(-1067 -2300)">
    <g id="Grupo_22562" data-name="Grupo 22562" transform="translate(1067 2300)" style="mix-blend-mode: multiply;isolation: isolate">
      <g id="Grupo_1391" data-name="Grupo 1391">
        <path id="Trazado_1622" data-name="Trazado 1622" d="M1055.585,3024.71l72-64v64Z" transform="translate(-1055.585 -2960.71)" fill="#ff97e2"/>
      </g>
    </g>
    <g id="motor-de-busqueda-web" transform="translate(1069 2305.832)">
      <g id="Grupo_22536" data-name="Grupo 22536">
        <path id="Trazado_20216" data-name="Trazado 20216" d="M422.248,230.657a3.368,3.368,0,0,0,4.952,2.974l.9.9a.984.984,0,0,0,1.392-1.392l-.9-.9a3.37,3.37,0,1,0-6.344-1.583Zm4.772,0a1.4,1.4,0,0,1-.374.95c-.013.012-.027.024-.04.037s-.024.027-.037.041a1.4,1.4,0,1,1,.451-1.028Z" transform="translate(-366.843 -204.887)"/>
        <path id="Trazado_20217" data-name="Trazado 20217" d="M66.2,74.73H63.5a.984.984,0,0,0,0,1.968h1.71V88.78H53.132V76.7h5.78a.984.984,0,1,0,0-1.968h-.4a26.387,26.387,0,0,0-9.01-12.77,25.93,25.93,0,0,0-15.75-5.387c-.112,0,0,0-.315,0a26.147,26.147,0,0,0-13.285,3.71.984.984,0,0,0,1.012,1.688,24.052,24.052,0,0,1,5.869-2.527,21.515,21.515,0,0,0-4.986,7.864H14.952A24.35,24.35,0,0,1,17.6,64.574.984.984,0,0,0,16.3,63.1,26.109,26.109,0,0,0,8.673,74.73H.984A.984.984,0,0,0,0,75.714V89.764a.984.984,0,0,0,.984.984H8.674a26.387,26.387,0,0,0,9.01,12.77,25.929,25.929,0,0,0,15.75,5.387c.051,0,.076,0,.315,0a25.93,25.93,0,0,0,15.75-5.387,26.387,26.387,0,0,0,9.01-12.77H66.2a.984.984,0,0,0,.984-.984V75.714A.984.984,0,0,0,66.2,74.73Zm-14.051,0H47.16a39.942,39.942,0,0,0-1.321-5.454h7.851a23.891,23.891,0,0,1,2.743,5.454Zm-30.126,0a36.912,36.912,0,0,1,1.4-5.454h9.182V74.73Zm12.554-5.454h9.182a36.928,36.928,0,0,1,1.4,5.454H34.575Zm0-10.655c3.3.539,6.338,3.771,8.428,8.687H34.575Zm17.634,8.687H45.138a21.56,21.56,0,0,0-4.96-7.841,24.5,24.5,0,0,1,12.031,7.841Zm-19.6-8.686v8.686H24.18C26.268,62.395,29.3,59.164,32.607,58.621ZM13.48,69.275h7.863a39.938,39.938,0,0,0-1.321,5.454H10.752A24.063,24.063,0,0,1,13.48,69.275Zm-1.689,19.5H1.968V76.7h49.2V88.78H16.384a.984.984,0,0,0,0,1.968h3.639A39.943,39.943,0,0,0,21.344,96.2H13.493a23.891,23.891,0,0,1-2.743-5.454h1.041a.984.984,0,0,0,0-1.968Zm20.816,9.391v8.687c-3.3-.539-6.338-3.771-8.428-8.687ZM23.425,96.2a36.928,36.928,0,0,1-1.4-5.454H32.607V96.2Zm11.15,10.654V98.171H43C40.914,103.084,37.88,106.314,34.575,106.857Zm0-10.654V90.749H45.161a36.912,36.912,0,0,1-1.4,5.454H34.575Zm-19.6,1.968h7.071A21.56,21.56,0,0,0,27,106.012a24.5,24.5,0,0,1-12.031-7.841Zm25.2,7.842a21.55,21.55,0,0,0,4.963-7.842h7.071A24.5,24.5,0,0,1,40.175,106.013ZM53.689,96.2H45.838a39.937,39.937,0,0,0,1.321-5.454h9.273A23.894,23.894,0,0,1,53.689,96.2Z" transform="translate(0 -56.571)"/>
      </g>
    </g>
  </g>
</svg>
