<svg xmlns="http://www.w3.org/2000/svg" width="18.931" height="22" viewBox="0 0 18.931 22">
  <g id="incandescente" transform="translate(-35.712)">
    <path id="Trazado_13759" data-name="Trazado 13759" d="M113.381,7.294a2.911,2.911,0,0,1-1.134-2.309V1.465A1.467,1.467,0,0,0,110.782,0h-2.757a1.467,1.467,0,0,0-1.465,1.465V5.014a2.875,2.875,0,0,1-1.151,2.293,6.582,6.582,0,1,0,7.974-.013Zm-5.963-5.829a.607.607,0,0,1,.606-.606h2.757a.607.607,0,0,1,.606.606v.994h-3.969Zm1.985,16.8A5.723,5.723,0,0,1,105.93,7.99a3.728,3.728,0,0,0,1.489-2.975v-1.7h3.969V4.985a3.775,3.775,0,0,0,1.474,2.994A5.723,5.723,0,0,1,109.4,18.261Z" transform="translate(-64.225)"/>
    <path id="Trazado_13760" data-name="Trazado 13760" d="M246.43,463.389a.43.43,0,0,0-.43.43v1.229a.43.43,0,1,0,.859,0v-1.229A.43.43,0,0,0,246.43,463.389Z" transform="translate(-201.252 -443.478)"/>
    <path id="Trazado_13761" data-name="Trazado 13761" d="M101.1,425.08a.43.43,0,0,0-.606.044l-.8.93a.43.43,0,0,0,.65.562l.8-.93A.43.43,0,0,0,101.1,425.08Z" transform="translate(-61.134 -406.714)"/>
    <path id="Trazado_13762" data-name="Trazado 13762" d="M374.457,425.122a.43.43,0,0,0-.65.562l.8.93a.43.43,0,0,0,.65-.562Z" transform="translate(-323.468 -406.713)"/>
    <path id="Trazado_13763" data-name="Trazado 13763" d="M37.371,318.428H36.142a.43.43,0,0,0,0,.859h1.229a.43.43,0,1,0,0-.859Z" transform="translate(0 -304.746)"/>
    <path id="Trazado_13764" data-name="Trazado 13764" d="M50.611,178.79l-1.063-.618a.43.43,0,0,0-.432.743l1.063.618a.43.43,0,0,0,.432-.743Z" transform="translate(-12.623 -170.461)"/>
    <path id="Trazado_13765" data-name="Trazado 13765" d="M419,179.533l1.063-.618a.43.43,0,1,0-.432-.743l-1.063.618a.43.43,0,1,0,.432.743Z" transform="translate(-366.202 -170.461)"/>
    <path id="Trazado_13766" data-name="Trazado 13766" d="M429.336,318.428h-1.229a.43.43,0,0,0,0,.859h1.229a.43.43,0,0,0,0-.859Z" transform="translate(-375.123 -304.746)"/>
    <path id="Trazado_13767" data-name="Trazado 13767" d="M290.1,279.176a.43.43,0,0,0-.43.43,3.877,3.877,0,0,1-2.277,3.526.43.43,0,0,0,.177.821,4.62,4.62,0,0,0,2.959-4.348A.43.43,0,0,0,290.1,279.176Z" transform="translate(-240.626 -267.18)"/>
    <path id="Trazado_13768" data-name="Trazado 13768" d="M246.137,381.641a.43.43,0,1,0,.608,0A.431.431,0,0,0,246.137,381.641Z" transform="translate(-201.264 -365.122)"/>
  </g>
</svg>
