<svg id="veterinario" xmlns="http://www.w3.org/2000/svg" width="89.325" height="89.325" viewBox="0 0 89.325 89.325">
  <path id="Trazado_18366" data-name="Trazado 18366" d="M88.028,37.286H65.359V14.616a6.647,6.647,0,0,0-6.647-6.647H43.933a6.647,6.647,0,0,0-6.647,6.647v22.67H14.616a6.647,6.647,0,0,0-6.647,6.647V58.711a6.647,6.647,0,0,0,6.647,6.647h22.67v22.67a6.647,6.647,0,0,0,6.647,6.647H58.711a6.647,6.647,0,0,0,6.647-6.647V65.358h22.67a6.647,6.647,0,0,0,6.647-6.647V43.933A6.647,6.647,0,0,0,88.028,37.286Z" transform="translate(-6.66 -6.66)" fill="#fff"/>
  <g id="Grupo_22099" data-name="Grupo 22099" transform="translate(48.829 1.31)">
    <path id="Trazado_18367" data-name="Trazado 18367" d="M280.488,357.613a6.248,6.248,0,0,1-6.248,6.248h3.949a6.248,6.248,0,0,0,6.248-6.248V336.305h-3.949Z" transform="translate(-274.24 -277.155)" fill="#fff"/>
    <path id="Trazado_18368" data-name="Trazado 18368" d="M280.488,14.217V35.525h3.949V14.217a6.248,6.248,0,0,0-6.248-6.248H274.24A6.248,6.248,0,0,1,280.488,14.217Z" transform="translate(-274.24 -7.969)" fill="#fff"/>
    <path id="Trazado_18369" data-name="Trazado 18369" d="M445.913,175.695h-3.949a6.248,6.248,0,0,1,6.248,6.248v13.891a6.248,6.248,0,0,1-6.248,6.248h3.949a6.248,6.248,0,0,0,6.248-6.248V181.943A6.247,6.247,0,0,0,445.913,175.695Z" transform="translate(-414.408 -145.536)" fill="#fff"/>
  </g>
  <ellipse id="Elipse_4309" data-name="Elipse 4309" cx="24.768" cy="24.768" rx="24.768" ry="24.768" transform="translate(19.894 19.894)" fill="#4efeb1"/>
  <path id="Trazado_18370" data-name="Trazado 18370" d="M245.907,121.085c-.669,0-1.33.035-1.984.1,11.312,1.122,20.182,11.737,20.182,24.669s-8.87,23.547-20.182,24.669c.654.065,1.315.1,1.984.1,12.242,0,22.166-11.09,22.166-24.769S258.149,121.085,245.907,121.085Z" transform="translate(-200.369 -101.192)" fill="#00af77"/>
  <g id="Grupo_22100" data-name="Grupo 22100" transform="translate(30.393 29.321)">
    <path id="Trazado_18371" data-name="Trazado 18371" d="M184.2,245.986l-.054-.054c-4.128-4.128-16.883.409-15.467,4.3a7.06,7.06,0,0,0,3.15,3.585,13.1,13.1,0,0,1,4.482,4.482,7.06,7.06,0,0,0,3.585,3.15C183.789,262.868,188.326,250.113,184.2,245.986Z" transform="translate(-168.568 -230.88)" fill="#fff"/>
    <path id="Trazado_18372" data-name="Trazado 18372" d="M244.219,165.494c-.87,2.295-.279,6.65,2.016,7.52s5.424-2.075,6.294-4.37a4.443,4.443,0,0,0-8.31-3.151Z" transform="translate(-231.471 -162.625)" fill="#fff"/>
    <path id="Trazado_18373" data-name="Trazado 18373" d="M172.578,177.246c.416,2.06,2.715,4.959,4.775,4.543s3.1-3.989,2.684-6.049a3.805,3.805,0,0,0-7.459,1.507Z" transform="translate(-171.856 -171.034)" fill="#fff"/>
    <path id="Trazado_18374" data-name="Trazado 18374" d="M298.808,228.039c-2.295.87-6.65.279-7.52-2.016s2.075-5.424,4.37-6.294a4.443,4.443,0,0,1,3.151,8.31Z" transform="translate(-270.995 -210.105)" fill="#fff"/>
    <path id="Trazado_18375" data-name="Trazado 18375" d="M294.2,306.576c-2.06-.416-4.959-2.715-4.543-4.775s3.989-3.1,6.049-2.684a3.8,3.8,0,0,1-1.507,7.459Z" transform="translate(-269.728 -276.616)" fill="#fff"/>
  </g>
  <path id="Trazado_18376" data-name="Trazado 18376" d="M81.3,29.262H65.875a26.443,26.443,0,0,0-5.813-5.813V15.044a1.39,1.39,0,1,0-2.78,0v6.625a26,26,0,0,0-7.271-2.683l-.127-.026q-.26-.053-.52-.1l-.216-.038c-.16-.027-.319-.055-.479-.08-.1-.016-.2-.029-.307-.044q-.331-.047-.663-.085c-.147-.017-.294-.034-.441-.048-.106-.01-.211-.019-.317-.028-.152-.013-.3-.025-.457-.036l-.3-.019q-.253-.014-.508-.024l-.252-.01c-.253-.007-.507-.012-.762-.012s-.509,0-.762.012l-.252.01q-.254.01-.508.024l-.3.019q-.229.016-.457.036l-.317.028c-.148.015-.294.032-.441.048q-.332.038-.662.085c-.1.014-.205.028-.307.044-.16.024-.32.052-.479.08l-.216.038q-.261.047-.52.1l-.127.026a25.993,25.993,0,0,0-7.271,2.683V8.025A5.25,5.25,0,0,1,37.287,2.78H52.038a5.25,5.25,0,0,1,5.244,5.245v2.469a1.39,1.39,0,1,0,2.78,0V8.025A8.034,8.034,0,0,0,52.038,0H37.287a8.034,8.034,0,0,0-8.025,8.025V23.449a26.443,26.443,0,0,0-5.813,5.813H8.025A8.034,8.034,0,0,0,0,37.287v4.564a1.39,1.39,0,0,0,2.78,0V37.287a5.25,5.25,0,0,1,5.245-5.245H21.669a26,26,0,0,0-2.683,7.271l-.026.127q-.053.26-.1.52c-.013.072-.025.144-.038.216-.027.16-.055.319-.08.479-.016.1-.029.2-.044.307q-.047.331-.085.663c-.017.147-.034.294-.049.441-.01.106-.019.211-.028.317-.013.152-.025.3-.036.457q-.01.15-.019.3-.014.253-.024.507c0,.084-.007.168-.01.252-.007.253-.012.507-.012.762s0,.509.012.762c0,.084.006.168.01.252q.01.254.024.508c.006.1.012.2.019.3q.016.229.036.457c.009.106.018.211.028.317.015.148.032.294.049.441q.038.332.085.662c.014.1.028.205.044.307.025.16.052.32.08.479.012.072.024.144.038.216q.047.261.1.52l.026.127a25.993,25.993,0,0,0,2.683,7.271H8.025A5.25,5.25,0,0,1,2.78,52.038V46.421a1.39,1.39,0,0,0-2.78,0v5.617a8.034,8.034,0,0,0,8.025,8.025H23.449a26.443,26.443,0,0,0,5.813,5.813V81.3a8.034,8.034,0,0,0,8.025,8.025H52.038A8.034,8.034,0,0,0,60.063,81.3V65.875a26.442,26.442,0,0,0,5.813-5.813H81.3a8.034,8.034,0,0,0,8.025-8.025V37.287A8.034,8.034,0,0,0,81.3,29.262ZM57.282,67.656V81.3a5.25,5.25,0,0,1-5.244,5.245H37.287A5.25,5.25,0,0,1,32.042,81.3V67.656a26,26,0,0,0,7.271,2.683l.127.026q.26.053.52.1l.216.038c.16.027.319.055.479.08.1.016.2.029.307.044q.33.047.662.085c.147.017.294.034.441.049.106.01.211.019.317.028.152.013.3.025.457.036l.3.019q.253.014.508.024l.252.01c.253.007.507.012.762.012s.509,0,.762-.012l.252-.01q.254-.01.508-.024l.3-.019q.229-.016.457-.036l.317-.028c.148-.015.294-.032.441-.049q.332-.038.663-.085c.1-.014.2-.028.307-.044.16-.025.32-.052.479-.08l.216-.038q.261-.047.52-.1l.127-.026A25.992,25.992,0,0,0,57.282,67.656Zm-6.208-.44h0q-.748.213-1.517.376l-.278.058c-.133.027-.267.053-.4.077q-.254.046-.51.087c-.129.021-.258.04-.388.058q-.257.036-.514.068l-.275.032c-.244.026-.488.05-.734.069l-.111.007q-.341.024-.684.038l-.212.008c-.262.009-.524.015-.787.015s-.525-.006-.787-.015l-.212-.008q-.343-.014-.684-.038l-.111-.007c-.245-.018-.49-.042-.734-.069l-.275-.032c-.172-.02-.343-.043-.514-.068q-.194-.027-.388-.058-.256-.041-.51-.087c-.134-.024-.268-.05-.4-.077l-.278-.058q-.768-.164-1.517-.376h0A23.541,23.541,0,0,1,22.108,51.074h0q-.213-.748-.376-1.517c-.02-.092-.039-.185-.058-.278-.027-.133-.053-.267-.077-.4q-.046-.254-.087-.51c-.021-.129-.04-.258-.058-.388q-.036-.257-.068-.514-.016-.137-.032-.275c-.026-.244-.05-.488-.069-.734,0-.037,0-.074-.007-.111q-.024-.341-.038-.684c0-.071-.006-.141-.008-.212-.009-.262-.015-.524-.015-.787s.006-.525.015-.787q0-.106.008-.212.014-.343.038-.684c0-.037,0-.074.007-.111.018-.245.042-.49.069-.734.01-.092.021-.183.032-.275.02-.172.043-.343.068-.514q.027-.194.058-.388.041-.255.087-.51c.024-.134.05-.268.077-.4.018-.093.038-.185.058-.278q.164-.768.376-1.517h0A23.541,23.541,0,0,1,38.251,22.108h0q.748-.213,1.517-.376l.278-.058c.133-.027.267-.053.4-.077q.254-.046.51-.087c.129-.021.258-.04.388-.058q.257-.036.514-.068l.275-.032c.244-.026.488-.05.734-.069l.111-.007q.341-.024.684-.038l.212-.008c.262-.009.524-.015.787-.015s.525.006.787.015l.212.008q.343.014.684.038l.111.007c.245.018.49.042.734.069l.275.032c.172.02.343.043.514.068q.194.027.388.058.256.041.51.087c.134.024.268.05.4.077l.278.058q.768.164,1.517.376h0A23.541,23.541,0,0,1,67.216,38.25h0q.213.748.376,1.517c.02.092.039.185.058.278.027.133.053.267.077.4q.046.254.087.51c.021.129.04.258.058.388q.036.257.068.514.016.137.032.275c.026.244.05.488.069.734,0,.037,0,.074.007.111q.024.341.038.684c0,.071.006.141.008.212.009.262.015.524.015.787s-.006.525-.015.787q0,.106-.008.212-.014.343-.038.684c0,.037,0,.074-.007.111-.018.245-.042.49-.069.734-.01.092-.021.183-.032.275-.02.172-.043.343-.068.514q-.027.194-.058.388-.041.255-.087.51c-.024.134-.05.268-.077.4-.018.093-.038.185-.058.278q-.164.768-.376,1.517h0A23.541,23.541,0,0,1,51.074,67.216Zm35.47-15.178A5.25,5.25,0,0,1,81.3,57.282H67.656a26,26,0,0,0,2.683-7.271l.026-.127q.053-.26.1-.52c.013-.072.025-.144.038-.216.027-.16.055-.319.08-.479.016-.1.029-.2.044-.307q.046-.33.085-.662c.017-.147.034-.294.049-.441.01-.106.019-.211.028-.317q.02-.228.036-.457c.007-.1.013-.2.019-.3q.014-.253.024-.508c0-.084.007-.168.01-.252.007-.253.012-.507.012-.762s0-.509-.012-.762c0-.084-.006-.168-.01-.252q-.01-.254-.024-.507-.009-.15-.019-.3-.016-.229-.036-.457c-.009-.106-.018-.211-.028-.317-.015-.148-.032-.294-.049-.441q-.038-.332-.085-.663c-.014-.1-.028-.2-.044-.307-.025-.16-.052-.32-.08-.479-.012-.072-.024-.144-.038-.216q-.047-.261-.1-.52l-.026-.127a25.994,25.994,0,0,0-2.683-7.271H81.3a5.25,5.25,0,0,1,5.245,5.245V52.038Z" transform="translate(0 0)"/>
  <path id="Trazado_18377" data-name="Trazado 18377" d="M178.4,238.345a8.185,8.185,0,0,0-5.931-2.017c-4.4,0-9.41,2.03-11.158,4.525a3.336,3.336,0,0,0-.534,3.169,8.247,8.247,0,0,0,3.711,4.262,11.793,11.793,0,0,1,4.028,4.028,8.246,8.246,0,0,0,4.262,3.71,3.093,3.093,0,0,0,1.06.188h0c1.975,0,3.887-1.88,5.244-5.157,1.7-4.095,2.224-9.8-.628-12.653Zm-1.736,11.706c-.953,2.3-2.167,3.541-2.826,3.541a.481.481,0,0,1-.166-.03,5.7,5.7,0,0,1-2.907-2.59,14.41,14.41,0,0,0-4.937-4.937,5.706,5.706,0,0,1-2.59-2.907c-.027-.075-.11-.3.218-.772,1.127-1.609,5.222-3.409,9.013-3.409a5.788,5.788,0,0,1,4.08,1.25l.054.054C178.428,242.075,178.067,246.666,176.665,250.051Z" transform="translate(-132.066 -194.354)"/>
  <path id="Trazado_18378" data-name="Trazado 18378" d="M239.119,167.579a3.77,3.77,0,0,0,1.342.241h0c2.713,0,5.677-2.831,6.64-5.371a5.752,5.752,0,1,0-10.758-4.078,9.4,9.4,0,0,0-.233,5.039C236.578,165.54,237.646,167.02,239.119,167.579Zm-.328-8.28a3.134,3.134,0,0,1,5.861,2.222c-.615,1.623-2.712,3.681-4.192,3.681a1.153,1.153,0,0,1-.414-.071,3.051,3.051,0,0,1-1.38-2.283A6.865,6.865,0,0,1,238.792,159.3Z" transform="translate(-194.342 -127.383)"/>
  <path id="Trazado_18379" data-name="Trazado 18379" d="M170.288,176.478h0a3.362,3.362,0,0,0,.666-.066c2.921-.59,4.243-4.944,3.708-7.592a5.114,5.114,0,1,0-10.026,2.025C165.1,173.142,167.533,176.478,170.288,176.478Zm-1.133-9.092a2.528,2.528,0,0,1,.5-.05,2.5,2.5,0,0,1,2.443,2c.34,1.685-.622,4.3-1.66,4.507a.718.718,0,0,1-.148.014c-1.064,0-2.765-1.948-3.085-3.533A2.5,2.5,0,0,1,169.155,167.386Z" transform="translate(-135.598 -135.709)"/>
  <path id="Trazado_18380" data-name="Trazado 18380" d="M283.391,219.827c.908,2.394,3.992,3.243,6.357,3.243a8.166,8.166,0,0,0,2.851-.467,5.752,5.752,0,1,0-4.078-10.758C285.682,212.921,282.189,216.654,283.391,219.827Zm6.058-5.534a3.134,3.134,0,1,1,2.222,5.861,5.629,5.629,0,0,1-1.923.3c-1.893,0-3.573-.668-3.909-1.553C285.332,217.559,287.558,215.01,289.449,214.293Z" transform="translate(-233.215 -174.232)"/>
  <path id="Trazado_18381" data-name="Trazado 18381" d="M289.292,291.172a6.312,6.312,0,0,0-1.244-.116c-2.7,0-5.846,1.341-6.348,3.824-.606,3,2.949,5.789,5.567,6.318a5.114,5.114,0,0,0,2.025-10.026Zm1.434,5.507a2.491,2.491,0,0,1-2.941,1.952c-1.686-.34-3.725-2.214-3.519-3.233.176-.87,2.049-1.725,3.781-1.725a3.716,3.716,0,0,1,.726.065A2.5,2.5,0,0,1,290.726,296.68Z" transform="translate(-232.032 -239.867)"/>
</svg>
