<svg xmlns="http://www.w3.org/2000/svg" width="22" height="21.997" viewBox="0 0 22 21.997">
  <g id="XMLID_1359_" transform="translate(0 -0.033)">
    <g id="XMLID_337_" transform="translate(0 0.033)">
      <path id="XMLID_414_" d="M17.511,52.059a2.685,2.685,0,0,0-3.8,0l-.671.671a1.52,1.52,0,0,1-2.147,0L7.586,49.419a1.518,1.518,0,0,1,0-2.147l.671-.671a2.688,2.688,0,0,0,0-3.8L6.273,40.82a2.685,2.685,0,0,0-3.8,0l-.68.68a6.132,6.132,0,0,0,0,8.672L4.6,52.979a.43.43,0,0,0,.608-.608L2.4,49.565a5.273,5.273,0,0,1-.164-7.285L6.81,46.851a2.377,2.377,0,0,0,.168,3.175l3.311,3.311a2.381,2.381,0,0,0,3.175.168l4.571,4.571a5.279,5.279,0,0,1-7.285-.164L7.944,55.106a.43.43,0,1,0-.608.608l2.806,2.806a6.139,6.139,0,0,0,8.673,0l.68-.68a2.688,2.688,0,0,0,0-3.8ZM5.665,41.428l1.984,1.984a1.827,1.827,0,0,1,0,2.581l-.241.241L2.843,41.669l.241-.241A1.827,1.827,0,0,1,5.665,41.428Zm13.222,15.8-.241.241-4.565-4.565.241-.241a1.827,1.827,0,0,1,2.581,0l1.984,1.984A1.827,1.827,0,0,1,18.887,57.231Z" transform="translate(0 -38.315)"/>
      <path id="XMLID_496_" d="M136.42,356.043a.43.43,0,1,0,.3.126A.431.431,0,0,0,136.42,356.043Z" transform="translate(-130.147 -340.746)"/>
      <path id="XMLID_779_" d="M370.793,77.753h-.735a.43.43,0,0,0,0,.859h.305V81.62a.43.43,0,1,0,.859,0V78.183A.43.43,0,0,0,370.793,77.753Z" transform="translate(-353.746 -74.413)"/>
      <path id="XMLID_982_" d="M427.891,77.753h-.735a.43.43,0,0,0,0,.859h.305V81.62a.43.43,0,1,0,.859,0V78.183A.43.43,0,0,0,427.891,77.753Z" transform="translate(-408.391 -74.413)"/>
      <path id="XMLID_985_" d="M285.036,78.182a1.424,1.424,0,1,0,0,2.847l.068,0a2.857,2.857,0,0,1-.565.641.43.43,0,0,0,.514.688,3.9,3.9,0,0,0,1.389-2.527,1.424,1.424,0,0,0-1.406-1.648Zm-.564,1.424a.564.564,0,1,1,.564.564A.565.565,0,0,1,284.471,79.606Z" transform="translate(-271.425 -74.824)"/>
      <path id="XMLID_1299_" d="M245.752.033h-7.644A2.11,2.11,0,0,0,236,2.141V8.753a2.111,2.111,0,0,0,1.678,2.064v1.075a.43.43,0,0,0,.734.3l1.335-1.335h6a2.11,2.11,0,0,0,2.108-2.108V2.141A2.11,2.11,0,0,0,245.752.033ZM247,8.753A1.25,1.25,0,0,1,245.752,10h-6.183a.43.43,0,0,0-.3.126l-.727.727v-.424a.43.43,0,0,0-.43-.43,1.25,1.25,0,0,1-1.248-1.248V2.141A1.25,1.25,0,0,1,238.108.892h7.644A1.25,1.25,0,0,1,247,2.141V8.753Z" transform="translate(-225.859 -0.033)"/>
    </g>
  </g>
</svg>
