<svg xmlns="http://www.w3.org/2000/svg" width="22.027" height="22.466" viewBox="0 0 22.027 22.466">
  <g id="pipeline" transform="translate(-5)">
    <path id="Trazado_13756" data-name="Trazado 13756" d="M26.588,1.755H24.394a.439.439,0,0,0-.439.439v.219H22.639a.439.439,0,0,0-.383.226,7.468,7.468,0,0,0-7.164,7.453v.439h-.219a.439.439,0,0,0-.439.439v1.755a.439.439,0,0,0,.439.439h.219v1.624a1.536,1.536,0,1,1-3.071,0V13.164h.219a.439.439,0,0,0,.439-.439V10.97a.439.439,0,0,0-.439-.439h-.219V4.767a.438.438,0,0,0,.219-.38V3.071h.219a.439.439,0,0,0,.439-.439V.439A.439.439,0,0,0,12.459,0H5.439A.439.439,0,0,0,5,.439V2.633a.439.439,0,0,0,.439.439h.219V4.388a.438.438,0,0,0,.219.38v5.763H5.658a.439.439,0,0,0-.439.439v1.755a.439.439,0,0,0,.439.439h.219v1.624A7.636,7.636,0,0,0,7.189,19.08a7.707,7.707,0,0,0,3.378,2.782,7.634,7.634,0,0,0,2.989.6v0h0a7.647,7.647,0,0,0,3.176-.686,7.685,7.685,0,0,0,2.531-1.855.439.439,0,0,0-.652-.588A6.8,6.8,0,0,1,6.755,14.787V13.164h4.388v1.624a2.413,2.413,0,1,0,4.827,0V13.164h4.388v1.624a6.872,6.872,0,0,1-.118,1.271.44.44,0,0,0,.432.52.439.439,0,0,0,.43-.358,7.746,7.746,0,0,0,.134-1.434V13.164h.219a.439.439,0,0,0,.439-.439V10.97a.439.439,0,0,0-.439-.439h-.219V10.18a1.407,1.407,0,0,1,1.054-1.36.438.438,0,0,0,.35.175h1.316v.219a.439.439,0,0,0,.439.439h2.194a.439.439,0,0,0,.439-.439V2.194a.439.439,0,0,0-.439-.439ZM11.8,12.286H6.1v-.878h5.7Zm-.658-7.459v5.7H6.755v-5.7ZM8.291,3.949V3.071H9.607v.878Zm2.194,0V3.071h.878v.878Zm-3.071,0H6.536V3.071h.878ZM5.878,2.194V.878h6.143V2.194ZM21.016,12.286h-5.7v-.878h5.7ZM22.2,7.94a2.286,2.286,0,0,0-1.843,2.239v.351H15.97v-.439A6.59,6.59,0,0,1,22.2,3.52Zm1.755.177h-.878V7.24h.878Zm0-1.755h-.878V5.046h.878Zm0-2.194h-.878V3.291h.878Zm2.194,4.607H24.833V2.633h1.316Z" transform="translate(0 0)"/>
    <path id="Trazado_13757" data-name="Trazado 13757" d="M87.977,397.523a.439.439,0,0,0-.727.491,5.885,5.885,0,0,0,3.34,2.389.444.444,0,0,0,.115.015.439.439,0,0,0,.114-.863A5,5,0,0,1,87.977,397.523Z" transform="translate(-78.569 -379.896)"/>
    <path id="Trazado_13758" data-name="Trazado 13758" d="M291.547,115.125a.439.439,0,1,0,.765.431c.045-.079.092-.158.141-.235a4.9,4.9,0,0,1,1.845-1.694.439.439,0,1,0-.408-.777,5.777,5.777,0,0,0-2.177,2C291.656,114.938,291.6,115.031,291.547,115.125Z" transform="translate(-273.92 -107.849)"/>
    <circle id="Elipse_3398" data-name="Elipse 3398" cx="0.439" cy="0.439" r="0.439" transform="translate(19.605 17.566)"/>
  </g>
</svg>
