<svg xmlns="http://www.w3.org/2000/svg" width="77.566" height="81.709" viewBox="0 0 77.566 81.709">
  <g id="ladron" transform="translate(-12.981)">
    <g id="Grupo_22777" data-name="Grupo 22777" transform="translate(14.482 1.197)">
      <path id="Trazado_21566" data-name="Trazado 21566" d="M111.5,85.146s-26.241,9.922-26.241,20.165S101.4,139.023,111.5,139.023s27.665-22.981,27.665-32.76S111.5,85.146,111.5,85.146Z" transform="translate(-75.223 -72.755)" fill="#6f6571"/>
      <path id="Trazado_21567" data-name="Trazado 21567" d="M139.167,106.267a9.446,9.446,0,0,1-.057,1.018c-3.233-2.762-11.995-10.046-13.812-11.323-5.672-3.982-11.095-6.447-12.868-6.447s-7.2,2.466-12.868,6.447c-1.313.922-8.969,7.245-14.1,11.524a12.968,12.968,0,0,1-.2-2.172c0-10.242,26.241-20.164,26.241-20.164s27.664,11.337,27.664,21.117Z" transform="translate(-75.227 -72.758)" fill="#635a63"/>
      <path id="Trazado_21568" data-name="Trazado 21568" d="M176.77,321.694a2.612,2.612,0,0,1-.353.228,38.315,38.315,0,0,1-36.544,0,2.577,2.577,0,0,1-.372-.243l2.371-.4A4.784,4.784,0,0,0,145.1,318.4c.1-.266.99-.627,1.046-.915l1.44-11.935,21.147,1.02.174,2.562.557,1.264,1.371,7.174a4.7,4.7,0,0,0,.259.868,4.778,4.778,0,0,0,3.216,2.839Z" transform="translate(-120.811 -257.985)" fill="#f2d1a5"/>
      <path id="Trazado_21569" data-name="Trazado 21569" d="M96.093,422.088H72.754l-1.375-.471-1.135.471H50.755l-1.276-.146-1.26.146h-22.4l-.955-.115A1.6,1.6,0,0,1,23.29,420.1l.538-1.807A12.768,12.768,0,0,1,34.26,407.914l7.932-1.446c.115.091,11.981,4.617,18.257,4.617a37.73,37.73,0,0,0,18.1-4.62,1.3,1.3,0,0,1,.532.017l7.794,1.328A12.768,12.768,0,0,1,97.31,418.191l.355,2.026a1.6,1.6,0,0,1-1.572,1.871Z" transform="translate(-23.125 -342.773)" fill="#df646e"/>
      <path id="Trazado_21570" data-name="Trazado 21570" d="M168.737,306.57l-21.147-1.02-2.244,12.019a4.834,4.834,0,0,1-.243.831,4.784,4.784,0,0,1-3.232,2.876l-2.371.4a30.158,30.158,0,0,0,4.132,2.022,7.662,7.662,0,0,0,4.534-5.586l.827-4.893a.637.637,0,0,1,.961-.439,15.474,15.474,0,0,0,8.138,2.548,16.151,16.151,0,0,0,9.216-3.254,26.73,26.73,0,0,0,2.159-1.684Z" transform="translate(-120.811 -257.985)" fill="#f2bb88"/>
      <path id="Trazado_21571" data-name="Trazado 21571" d="M45.208,408.642a8.569,8.569,0,0,1-1.152.385l-10.376,1.767a9.915,9.915,0,0,0-8.085,8.047l-.517,3.4H23.983a1.6,1.6,0,0,1-1.572-1.872l.354-2.025A12.768,12.768,0,0,1,33.2,407.962l7.879-1.342,2.538.629Z" transform="translate(-22.386 -342.925)" fill="#dc4955"/>
      <g id="Grupo_22776" data-name="Grupo 22776" transform="translate(22.786 25.685)">
        <path id="Trazado_21572" data-name="Trazado 21572" d="M178.656,173.15c0,1.478-4.274,4.7-8,4.7s-5.49-2.106-5.49-4.7,1.765-4.7,5.49-4.7S178.656,171.672,178.656,173.15Z" transform="translate(-165.168 -168.446)" fill="#f2d1a5"/>
        <path id="Trazado_21573" data-name="Trazado 21573" d="M262.312,173.15c0-1.478,4.274-4.7,8-4.7s5.489,2.106,5.489,4.7-1.765,4.7-5.489,4.7S262.312,174.628,262.312,173.15Z" transform="translate(-246.809 -168.446)" fill="#f2d1a5"/>
        <path id="Trazado_21574" data-name="Trazado 21574" d="M206.233,254.017c0-3.258,4.843-5.655,7.987-5.655s7.987,2.4,7.987,5.655-4.386,6.521-7.987,6.521S206.233,257.275,206.233,254.017Z" transform="translate(-199.68 -235.608)" fill="#f2d1a5"/>
      </g>
      <path id="Trazado_21575" data-name="Trazado 21575" d="M159.076,52c-11.6,0-18.405,8.8-18.405,22.187,0,7.794.152,11.056,3.334,15.461,4.389,6.077,9.855,10.2,15.071,10.2s10.683-4.127,15.071-10.2c3.182-4.4,3.334-7.667,3.334-15.461C177.482,60.8,170.675,52,159.076,52ZM145.358,75.287c0-2.3,1.561-4.162,4.856-4.162s7.078,2.855,7.078,4.162-3.782,4.162-7.078,4.162S145.358,77.585,145.358,75.287Zm13.763,19.578c-3.217,0-7.137-2.916-7.137-5.828s4.328-5.053,7.137-5.053,7.137,2.142,7.137,5.053S162.338,94.865,159.121,94.865Zm8.817-15.416c-3.3,0-7.078-2.853-7.078-4.162s3.782-4.162,7.078-4.162,4.856,1.864,4.856,4.162S171.234,79.449,167.938,79.449Z" transform="translate(-121.794 -44.898)" fill="#857e87"/>
      <path id="Trazado_21576" data-name="Trazado 21576" d="M195.76,52a17.221,17.221,0,0,0-11.439,3.913C188,53.92,192.305,52.08,195.68,52.08c3.5,0,8.018,1.985,11.782,4.063A17.143,17.143,0,0,0,195.76,52Z" transform="translate(-158.478 -44.898)" fill="#6f6571"/>
      <path id="Trazado_21577" data-name="Trazado 21577" d="M177.658,73.009a50,50,0,0,0-5.584-4.486c-5.672-3.982-11.095-6.447-12.868-6.447s-7.2,2.466-12.868,6.447a50.629,50.629,0,0,0-5.418,4.33c.335-7.234,2.761-12.984,6.926-16.519,3.675-1.993,7.984-3.833,11.359-3.833,3.5,0,8.018,1.985,11.782,4.063C175.023,60.139,177.358,65.856,177.658,73.009Z" transform="translate(-122.004 -45.319)" fill="#6f6571"/>
      <path id="Trazado_21578" data-name="Trazado 21578" d="M130.91,40.056c0-16.278-12.288-32.556-29.125-32.556S72.5,23.778,72.5,40.056l9.575-11.65,19.629-8.937,24.417,12.767Z" transform="translate(-64.503 -7.5)" fill="#e27f86"/>
      <path id="Trazado_21579" data-name="Trazado 21579" d="M128.087,82.322a53.15,53.15,0,0,0-7.857-6.615c-1.7-1.2-9.926-6.8-15.638-7.644,0,0-.925-.021-1.357-.021-5.669,0-14.93,6.668-16.773,7.962A51.676,51.676,0,0,0,78.7,82.523c-2.93,3.114-4.375,5.729-4.375,8.413,0,4.172,2.107,9.924,6.009,16.183,3.1,4.966,17.174,18.943,17.174,18.943l5.731.142,5.731-.142.235-.174a68.341,68.341,0,0,0,17.1-18.538c3.9-6.259,6.141-12.244,6.141-16.415C132.44,88.253,131.017,85.436,128.087,82.322Zm-21.739,39.723-3.112,1.767-3.112-1.767c-13.964-10.362-21.3-25.2-21.3-31.108S97.81,72.744,103.236,72.744s24.417,12.288,24.417,18.193S120.312,111.683,106.348,122.045Z" transform="translate(-66.034 -58.381)" fill="#df646e"/>
      <path id="Trazado_21580" data-name="Trazado 21580" d="M98.688,125.607H95.975l-.235-.174a68.341,68.341,0,0,1-17.1-18.538c-3.9-6.259-6.141-12.244-6.141-16.415,0-2.684,1.424-5.5,4.354-8.615a53.149,53.149,0,0,1,7.856-6.615c1.843-1.294,11.326-7.751,16.995-7.751a9.071,9.071,0,0,1,1.36.108c-5.712.844-13.939,6.448-15.641,7.643a53.149,53.149,0,0,0-7.857,6.615c-2.93,3.114-4.354,5.93-4.354,8.615,0,4.172,2.239,10.156,6.141,16.415A69.336,69.336,0,0,0,91.48,119.364a66.142,66.142,0,0,0,6.973,6.07Z" transform="translate(-64.503 -57.925)" fill="#dc4955"/>
      <path id="Trazado_21581" data-name="Trazado 21581" d="M153.739,385.768a38.3,38.3,0,0,1-14.512-2.858,5.538,5.538,0,0,0-.974-.7c-.891-.4-1.623-.616-2.49-1.085a2.584,2.584,0,0,1-1.195-3.54,2.455,2.455,0,0,1,3.487-.988,30.921,30.921,0,0,0,4.783,2.082,1.805,1.805,0,0,0,.544-.051,32.859,32.859,0,0,0,26.034-2.3,2.728,2.728,0,0,1,2.595,4.8A38.4,38.4,0,0,1,153.739,385.768Z" transform="translate(-116.406 -317.193)" fill="#e27f86"/>
      <path id="Trazado_21582" data-name="Trazado 21582" d="M142.2,378.629a.2.2,0,0,0-.011.027,7.674,7.674,0,0,1-4.144,4.251,26.509,26.509,0,0,1-4.132-2.022,2.728,2.728,0,0,1,2.965-4.558q1.3.7,2.638,1.278C140.4,377.988,141.3,378.329,142.2,378.629Z" transform="translate(-115.225 -317.191)" fill="#df646e"/>
    </g>
    <g id="Grupo_22778" data-name="Grupo 22778" transform="translate(12.981)">
      <path id="Trazado_21583" data-name="Trazado 21583" d="M462.5,439.971l-.683-3.9a13.862,13.862,0,0,0-4.216-7.788,1.2,1.2,0,0,0-1.635,1.748,11.485,11.485,0,0,1,3.494,6.453l.683,3.9a1.278,1.278,0,0,0,1.386.972A1.2,1.2,0,0,0,462.5,439.971Z" transform="translate(-384.952 -359.666)"/>
      <path id="Trazado_21584" data-name="Trazado 21584" d="M212.393,244.921c-3.318,0-8.334,2.493-8.334,6.25,0,3.717,4.66,7.024,8.334,7.024s8.334-3.307,8.334-7.024C220.727,247.414,215.711,244.921,212.393,244.921Zm0,10.88c-2.72,0-5.94-2.51-5.94-4.63,0-2.054,3.7-3.856,5.94-3.856s5.94,1.8,5.94,3.856C218.333,253.291,215.113,255.8,212.393,255.8Z" transform="translate(-173.565 -205.835)"/>
      <path id="Trazado_21585" data-name="Trazado 21585" d="M238.137,276.378h-5.55a1.2,1.2,0,1,0,0,2.394h5.55a1.2,1.2,0,0,0,0-2.394Z" transform="translate(-196.535 -232.271)"/>
      <path id="Trazado_21586" data-name="Trazado 21586" d="M176.866,169.7c0-2.3-4.717-5.359-8.274-5.359-3.677,0-6.054,2.1-6.054,5.359s2.376,5.359,6.054,5.359C172.15,175.061,176.866,172.006,176.866,169.7Zm-8.274,2.965c-2.326,0-3.66-1.081-3.66-2.965,0-1.86,1.3-2.935,3.573-2.962v2.81a1.2,1.2,0,1,0,2.394,0v-2.343a7.829,7.829,0,0,1,3.547,2.5A8.307,8.307,0,0,1,168.593,172.667Z" transform="translate(-138.671 -138.117)"/>
      <path id="Trazado_21587" data-name="Trazado 21587" d="M259.685,169.7c0,2.3,4.717,5.359,8.274,5.359,3.677,0,6.054-2.1,6.054-5.359s-2.376-5.359-6.054-5.359C264.4,164.344,259.685,167.4,259.685,169.7Zm8.36-2.962c2.271.027,3.573,1.1,3.573,2.962,0,1.884-1.334,2.965-3.66,2.965a8.308,8.308,0,0,1-5.853-2.965,7.826,7.826,0,0,1,3.546-2.5v2.343a1.2,1.2,0,0,0,2.394,0Z" transform="translate(-220.314 -138.117)"/>
      <path id="Trazado_21588" data-name="Trazado 21588" d="M82.086,33.753A36.355,36.355,0,0,0,73.553,10.6C67.758,3.763,60.02,0,51.764,0A27.862,27.862,0,0,0,33.03,7.388a1.2,1.2,0,1,0,1.594,1.786,25.505,25.505,0,0,1,17.14-6.78c13.772,0,23.816,11.02,26.919,23.375a50,50,0,0,0-9.317-8.225C66.7,15.674,57.561,9.575,51.684,9.575S36.665,15.674,34,17.544a49.735,49.735,0,0,0-9.291,8.194,34.226,34.226,0,0,1,6.207-12.616,1.2,1.2,0,1,0-1.879-1.483,36.4,36.4,0,0,0-7.756,22.113c0,4.39,2.3,10.6,6.322,17.048a68.586,68.586,0,0,0,6.017,8.205,3.916,3.916,0,0,0-2.486,5.018l-6.043,1.029A13.992,13.992,0,0,0,13.682,76.409L13,80.305a1.2,1.2,0,1,0,2.358.413l.683-3.9a11.593,11.593,0,0,1,9.454-9.409L32.9,66.152a41.534,41.534,0,0,0,6.558,2.826c-.91,4.821-.832,8.727.237,11.914a1.2,1.2,0,0,0,2.27-.761c-.919-2.741-.983-6.177-.2-10.47a39.238,39.238,0,0,0,20.144-.014c.789,4.3.725,7.741-.194,10.485a1.2,1.2,0,1,0,2.27.761c1.07-3.192,1.147-7.1.233-11.932a39.8,39.8,0,0,0,6.433-2.773l.04-.023,7.337,1.249a11.646,11.646,0,0,1,1.587.387,1.253,1.253,0,0,0,1.5-.775,1.2,1.2,0,0,0-.775-1.5,14.057,14.057,0,0,0-1.915-.466L72.49,64.041a3.918,3.918,0,0,0-2.689-5.1A68.586,68.586,0,0,0,75.764,50.8c4.018-6.445,6.322-12.659,6.322-17.048ZM70.138,62.006a1.533,1.533,0,0,1-.619,2.076,37.117,37.117,0,0,1-35.406,0,1.62,1.62,0,0,1-.619-2.075c.359-.57.8-1.1,2.076-.619a34.067,34.067,0,0,0,32.493,0A1.533,1.533,0,0,1,70.138,62.006ZM65.79,59.861a31.894,31.894,0,0,1-5.6,2.121,64.688,64.688,0,0,0,11.89-14.333c3.266-5.387,5.216-10.582,5.216-13.9,0-4.467-7.857-10.351-11.235-12.674a1.2,1.2,0,0,0-1.356,1.973c1.451,1,2.787,2,3.983,2.981a34.367,34.367,0,0,1,.281,4.453c0,7.771-.15,10.667-3.106,14.76-4.455,6.169-9.595,9.707-14.1,9.707a9.367,9.367,0,0,1-1.742-.168,1.2,1.2,0,0,0-.446,2.352,11.774,11.774,0,0,0,2.189.21c3.248,0,6.708-1.475,10.033-4.19l.639,3.261a62.059,62.059,0,0,1-6.925,6.388,1.229,1.229,0,0,0-.112.1,31.606,31.606,0,0,1-7.451-.031,62,62,0,0,1-6.884-6.318l.665-3.394A23.53,23.53,0,0,0,43.962,54.8a1.2,1.2,0,0,0,1.29-2.016,29.253,29.253,0,0,1-7.59-7.534c-2.956-4.093-3.106-6.989-3.106-14.76a39.553,39.553,0,0,1,.289-4.586c1-.818,2.1-1.65,3.284-2.479,5.411-3.8,11.238-6.665,13.555-6.665,1.507,0,4.71,1.29,8.359,3.366a1.2,1.2,0,1,0,1.184-2.081c-2.415-1.374-6.866-3.679-9.543-3.679-3.33,0-9.9,3.566-14.931,7.1-3.212,2.255-10.683,7.968-10.683,12.29,0,3.324,1.959,8.534,5.24,13.936A64.681,64.681,0,0,0,43.06,61.878a31.918,31.918,0,0,1-5.684-2.249,67.216,67.216,0,0,1-7.739-10.094c-3.787-6.076-5.96-11.828-5.96-15.782,0-2.364,1.318-4.914,4.029-7.795A52.032,52.032,0,0,1,35.378,19.5c4.95-3.476,12.191-7.534,16.307-7.534S63.041,16.028,67.991,19.5a52.006,52.006,0,0,1,7.673,6.456c2.711,2.88,4.028,5.43,4.028,7.794,0,3.954-2.172,9.706-5.96,15.782A68.463,68.463,0,0,1,65.79,59.861Zm5.516-31.507c2.269,2.207,3.6,4.142,3.6,5.4,0,2.235-1.279,6.733-4.869,12.655a61.249,61.249,0,0,1-5.6,7.761l-.589-2.857a37.159,37.159,0,0,0,3.96-4.663c3.415-4.73,3.56-8.373,3.56-16.161q0-1.08-.059-2.132ZM35.722,46.648a37.495,37.495,0,0,0,3.96,4.665l-.618,3.008a61.322,61.322,0,0,1-5.707-7.875C29.75,40.507,28.464,36,28.464,33.753c0-1.272,1.4-3.275,3.766-5.551q-.067,1.125-.068,2.285c0,7.789.144,11.432,3.559,16.162Z" transform="translate(-12.981 0)"/>
    </g>
  </g>
</svg>
