<svg id="Grupo_22184" data-name="Grupo 22184" xmlns="http://www.w3.org/2000/svg" width="156" height="48" viewBox="0 0 156 48">
  <g id="Grupo_22143" data-name="Grupo 22143">
    <path id="Trazado_18412" data-name="Trazado 18412" d="M143.577,0H12.43c-.478,0-.95,0-1.427,0-.4,0-.8.009-1.2.015A18.678,18.678,0,0,0,7.192.23,9.221,9.221,0,0,0,4.714.982,8.4,8.4,0,0,0,2.6,2.4,7.571,7.571,0,0,0,1.068,4.342,7.49,7.49,0,0,0,.253,6.626a14.387,14.387,0,0,0-.234,2.4C.008,9.4.006,9.765,0,10.133V37.87c.006.373.008.734.02,1.106a14.386,14.386,0,0,0,.234,2.4A7.5,7.5,0,0,0,2.6,45.6a8.187,8.187,0,0,0,2.11,1.414,9.269,9.269,0,0,0,2.478.757,19.017,19.017,0,0,0,2.612.212c.4.008.8.013,1.2.013.477,0,.949,0,1.427,0H143.577c.469,0,.945,0,1.413,0,.4,0,.8,0,1.2-.013a18.769,18.769,0,0,0,2.607-.212,9.413,9.413,0,0,0,2.488-.757A8.19,8.19,0,0,0,153.4,45.6a7.742,7.742,0,0,0,1.54-1.937,7.491,7.491,0,0,0,.807-2.285,14.959,14.959,0,0,0,.242-2.4c.005-.373.005-.734.005-1.106.01-.436.01-.87.01-1.313V11.443c0-.439,0-.875-.01-1.31,0-.368,0-.737-.005-1.105a14.957,14.957,0,0,0-.242-2.4,7.506,7.506,0,0,0-.807-2.284,8.126,8.126,0,0,0-3.649-3.36A9.365,9.365,0,0,0,148.8.23a18.436,18.436,0,0,0-2.607-.212c-.4-.006-.8-.013-1.2-.015-.469,0-.945,0-1.413,0Z" transform="translate(0 0)" fill="#a6a6a6"/>
    <path id="Trazado_18413" data-name="Trazado 18413" d="M10.759,46.83c-.4,0-.786,0-1.181-.013a17.968,17.968,0,0,1-2.44-.2,8.154,8.154,0,0,1-2.163-.658,7.065,7.065,0,0,1-1.824-1.221A6.5,6.5,0,0,1,1.11,41.072,13.756,13.756,0,0,1,.892,38.82c-.008-.253-.019-1.1-.019-1.1V9.969s.012-.831.019-1.075a13.708,13.708,0,0,1,.216-2.249A6.547,6.547,0,0,1,3.143,2.969,7.272,7.272,0,0,1,4.974,1.74a8.072,8.072,0,0,1,2.159-.654A17.823,17.823,0,0,1,9.582.89L10.76.875H144.939l1.192.015a17.539,17.539,0,0,1,2.426.2,8.233,8.233,0,0,1,2.182.658,7.038,7.038,0,0,1,3.153,2.907,6.542,6.542,0,0,1,.7,1.981,14.4,14.4,0,0,1,.227,2.267c0,.34,0,.706,0,1.069.01.451.01.879.01,1.312V36.425c0,.436,0,.862-.01,1.292,0,.391,0,.749-.005,1.117a14.113,14.113,0,0,1-.223,2.227,6.514,6.514,0,0,1-.705,2.006,6.645,6.645,0,0,1-1.326,1.665,7.071,7.071,0,0,1-1.827,1.228,8.125,8.125,0,0,1-2.178.661,17.762,17.762,0,0,1-2.441.2c-.382.008-.783.013-1.172.013l-1.415,0Z" transform="translate(0.147 0.148)"/>
  </g>
  <g id="_Group_" data-name="&lt;Group&gt;" transform="translate(17.976 10.908)">
    <g id="_Group_2" data-name="&lt;Group&gt;">
      <g id="_Group_3" data-name="&lt;Group&gt;">
        <path id="_Path_" data-name="&lt;Path&gt;" d="M27.265,21.368a5.784,5.784,0,0,1,2.754-4.853,5.92,5.92,0,0,0-4.665-2.522c-1.963-.206-3.865,1.174-4.865,1.174-1.019,0-2.559-1.154-4.217-1.12a6.212,6.212,0,0,0-5.228,3.188c-2.26,3.913-.574,9.665,1.591,12.828,1.083,1.549,2.349,3.279,4.006,3.218,1.621-.067,2.227-1.034,4.183-1.034,1.939,0,2.507,1.034,4.2.995,1.739-.028,2.835-1.556,3.881-3.119a12.811,12.811,0,0,0,1.775-3.614,5.589,5.589,0,0,1-3.412-5.141Z" transform="translate(-9.972 -7.834)" fill="#fff"/>
        <path id="_Path_2" data-name="&lt;Path&gt;" d="M22.585,12.8a5.7,5.7,0,0,0,1.3-4.08,5.794,5.794,0,0,0-3.749,1.94A5.419,5.419,0,0,0,18.8,14.588,4.791,4.791,0,0,0,22.585,12.8Z" transform="translate(-8.484 -8.72)" fill="#fff"/>
      </g>
    </g>
    <g id="Grupo_22144" data-name="Grupo 22144" transform="translate(32.325 10.695)">
      <path id="Trazado_18414" data-name="Trazado 18414" d="M43.631,28.668H38.1L36.77,32.591H34.427l5.24-14.513H42.1l5.24,14.513H44.958Zm-4.959-1.81h4.385L40.9,20.492h-.06Z" transform="translate(-34.427 -17.836)" fill="#fff"/>
      <path id="Trazado_18415" data-name="Trazado 18415" d="M56.6,26.75c0,3.288-1.76,5.4-4.416,5.4A3.587,3.587,0,0,1,48.854,30.3H48.8V35.54H46.631V21.459h2.1v1.76h.04a3.753,3.753,0,0,1,3.369-1.871C54.828,21.348,56.6,23.471,56.6,26.75Zm-2.232,0c0-2.142-1.107-3.551-2.8-3.551-1.659,0-2.776,1.438-2.776,3.551,0,2.132,1.116,3.56,2.776,3.56,1.689,0,2.8-1.4,2.8-3.56Z" transform="translate(-32.368 -17.285)" fill="#fff"/>
      <path id="Trazado_18416" data-name="Trazado 18416" d="M66.563,26.75c0,3.288-1.76,5.4-4.416,5.4A3.587,3.587,0,0,1,58.818,30.3h-.05V35.54H56.6V21.459h2.1v1.76h.04a3.753,3.753,0,0,1,3.369-1.871C64.793,21.348,66.563,23.471,66.563,26.75Zm-2.232,0c0-2.142-1.107-3.551-2.8-3.551-1.659,0-2.776,1.438-2.776,3.551,0,2.132,1.116,3.56,2.776,3.56,1.689,0,2.8-1.4,2.8-3.56Z" transform="translate(-30.687 -17.285)" fill="#fff"/>
      <path id="Trazado_18417" data-name="Trazado 18417" d="M72.031,28.582c.161,1.439,1.559,2.384,3.47,2.384,1.831,0,3.148-.945,3.148-2.243,0-1.126-.794-1.8-2.675-2.263l-1.881-.453c-2.665-.644-3.9-1.89-3.9-3.912,0-2.5,2.182-4.224,5.281-4.224,3.067,0,5.169,1.72,5.24,4.224H78.519c-.131-1.448-1.328-2.323-3.078-2.323s-2.947.885-2.947,2.172c0,1.026.765,1.63,2.635,2.092l1.6.393c2.978.7,4.215,1.9,4.215,4.023,0,2.715-2.163,4.416-5.6,4.416-3.219,0-5.392-1.661-5.532-4.286Z" transform="translate(-28.458 -17.871)" fill="#fff"/>
      <path id="Trazado_18418" data-name="Trazado 18418" d="M83.883,19.3v2.5H85.9v1.72H83.883v5.833c0,.906.4,1.328,1.287,1.328a6.786,6.786,0,0,0,.714-.05v1.71a5.964,5.964,0,0,1-1.206.1c-2.142,0-2.978-.8-2.978-2.857V23.524H80.163V21.8H81.7V19.3Z" transform="translate(-26.711 -17.63)" fill="#fff"/>
      <path id="Trazado_18419" data-name="Trazado 18419" d="M86.065,26.752c0-3.329,1.961-5.421,5.018-5.421s5.02,2.092,5.02,5.421-1.941,5.421-5.02,5.421S86.065,30.091,86.065,26.752Zm7.825,0c0-2.284-1.047-3.632-2.807-3.632s-2.805,1.358-2.805,3.632c0,2.293,1.045,3.631,2.805,3.631s2.806-1.338,2.806-3.631Z" transform="translate(-25.715 -17.287)" fill="#fff"/>
      <path id="Trazado_18420" data-name="Trazado 18420" d="M96.186,21.459h2.072v1.8h.05a2.524,2.524,0,0,1,2.545-1.912,3.35,3.35,0,0,1,.744.081v2.032a3.036,3.036,0,0,0-.976-.131,2.189,2.189,0,0,0-2.263,2.434V32.04H96.186Z" transform="translate(-24.008 -17.285)" fill="#fff"/>
      <path id="Trazado_18421" data-name="Trazado 18421" d="M110.762,28.935c-.292,1.921-2.163,3.239-4.556,3.239-3.078,0-4.989-2.062-4.989-5.371s1.921-5.471,4.9-5.471c2.927,0,4.768,2.011,4.768,5.219v.744H103.41v.131a2.756,2.756,0,0,0,2.846,3,2.394,2.394,0,0,0,2.444-1.488Zm-7.342-3.158h5.29a2.545,2.545,0,0,0-2.6-2.686,2.679,2.679,0,0,0-2.694,2.686Z" transform="translate(-23.159 -17.287)" fill="#fff"/>
    </g>
  </g>
  <g id="_Group_4" data-name="&lt;Group&gt;" transform="translate(51.754 9.69)">
    <g id="Grupo_22146" data-name="Grupo 22146">
      <path id="Trazado_18422" data-name="Trazado 18422" d="M38.19,8.732A3.085,3.085,0,0,1,41.471,12.2c0,2.228-1.2,3.508-3.281,3.508H35.671V8.732Zm-1.436,5.987h1.315a2.192,2.192,0,0,0,2.3-2.508,2.2,2.2,0,0,0-2.3-2.494H36.754Z" transform="translate(-35.671 -7.901)" fill="#fff"/>
      <path id="Trazado_18423" data-name="Trazado 18423" d="M46.4,14.051a2.136,2.136,0,0,1-2.28,1.523,2.39,2.39,0,0,1-2.431-2.716,2.427,2.427,0,0,1,2.426-2.749c1.464,0,2.348,1,2.348,2.653v.362H42.742v.058a1.391,1.391,0,0,0,1.4,1.508,1.261,1.261,0,0,0,1.252-.638Zm-3.653-1.7H45.4a1.27,1.27,0,0,0-1.3-1.363,1.346,1.346,0,0,0-1.363,1.363Z" transform="translate(-34.66 -7.667)" fill="#fff"/>
      <path id="Trazado_18424" data-name="Trazado 18424" d="M48.919,10.108c1.184,0,1.957.551,2.059,1.479h-1c-.1-.386-.474-.633-1.063-.633s-1.02.275-1.02.686c0,.314.266.512.837.643l.874.2c1,.232,1.47.663,1.47,1.436,0,.991-.923,1.653-2.18,1.653s-2.068-.566-2.161-1.5h1.04a1.068,1.068,0,0,0,1.145.657c.647,0,1.107-.29,1.107-.71,0-.314-.247-.517-.774-.643l-.918-.213c-1-.237-1.464-.686-1.464-1.469C46.875,10.765,47.73,10.108,48.919,10.108Z" transform="translate(-33.804 -7.667)" fill="#fff"/>
      <path id="Trazado_18425" data-name="Trazado 18425" d="M55.137,11.931a1.175,1.175,0,0,0-1.243-.894c-.87,0-1.4.667-1.4,1.788,0,1.141.536,1.822,1.4,1.822a1.144,1.144,0,0,0,1.243-.865h1.01A2.059,2.059,0,0,1,53.9,15.575a2.417,2.417,0,0,1-2.47-2.75,2.4,2.4,0,0,1,2.464-2.716,2.077,2.077,0,0,1,2.253,1.822Z" transform="translate(-33.016 -7.668)" fill="#fff"/>
      <path id="Trazado_18426" data-name="Trazado 18426" d="M56.345,14.336c0-.947.705-1.493,1.957-1.571l1.426-.082v-.454c0-.556-.368-.87-1.077-.87-.58,0-.982.213-1.1.585H56.548c.106-.9.956-1.484,2.15-1.484,1.319,0,2.064.657,2.064,1.768v3.6h-1v-.74H59.68a1.771,1.771,0,0,1-1.581.826,1.59,1.59,0,0,1-1.754-1.575Zm3.383-.45v-.44l-1.285.082c-.725.049-1.053.3-1.053.759s.411.749.976.749a1.241,1.241,0,0,0,1.363-1.15Zm-1.653-4.2L59.288,8.02h1.218L59.148,9.682Z" transform="translate(-32.183 -8.02)" fill="#fff"/>
      <path id="Trazado_18427" data-name="Trazado 18427" d="M61.516,10.208h1v.807h.078a1.427,1.427,0,0,1,1.421-.894,2.184,2.184,0,0,1,.463.043v1.025a2.845,2.845,0,0,0-.58-.063,1.233,1.233,0,0,0-1.343,1.237v3.107H61.516Z" transform="translate(-31.311 -7.666)" fill="#fff"/>
      <path id="Trazado_18428" data-name="Trazado 18428" d="M64.9,16h1.063c.088.382.527.628,1.228.628.865,0,1.378-.411,1.378-1.107v-1.01h-.078a1.77,1.77,0,0,1-1.624.884c-1.343,0-2.175-1.039-2.175-2.614,0-1.6.841-2.658,2.185-2.658a1.824,1.824,0,0,1,1.653.928h.082v-.841h1v5.306c0,1.2-.943,1.967-2.431,1.967C65.858,17.481,65.007,16.891,64.9,16Zm3.688-3.224c0-1.048-.542-1.72-1.427-1.72s-1.4.672-1.4,1.72.5,1.721,1.4,1.721,1.427-.666,1.427-1.721Z" transform="translate(-30.775 -7.665)" fill="#fff"/>
      <path id="Trazado_18429" data-name="Trazado 18429" d="M70.053,13.984c0-.947.705-1.493,1.957-1.571l1.426-.082v-.454c0-.556-.368-.87-1.077-.87-.58,0-.982.213-1.1.585H70.256c.106-.9.956-1.484,2.15-1.484,1.319,0,2.064.657,2.064,1.768v3.6h-1v-.74h-.082a1.771,1.771,0,0,1-1.581.826,1.59,1.59,0,0,1-1.754-1.575Zm3.383-.45v-.44l-1.285.082c-.725.049-1.053.3-1.053.759s.411.749.976.749a1.241,1.241,0,0,0,1.363-1.15Z" transform="translate(-29.87 -7.667)" fill="#fff"/>
      <path id="Trazado_18430" data-name="Trazado 18430" d="M75.265,8.437H76.3v7.317H75.265Z" transform="translate(-28.991 -7.949)" fill="#fff"/>
      <path id="Trazado_18431" data-name="Trazado 18431" d="M77.391,12.838a2.493,2.493,0,1,1,4.964,0,2.494,2.494,0,1,1-4.964,0Zm3.9,0c0-1.141-.512-1.808-1.412-1.808s-1.411.667-1.411,1.808.508,1.812,1.411,1.812S81.286,13.984,81.286,12.838Z" transform="translate(-28.634 -7.667)" fill="#fff"/>
      <path id="Trazado_18432" data-name="Trazado 18432" d="M89.763,14.051a2.136,2.136,0,0,1-2.28,1.523,2.39,2.39,0,0,1-2.431-2.716,2.427,2.427,0,0,1,2.426-2.749c1.464,0,2.348,1,2.348,2.653v.362H86.11v.058a1.391,1.391,0,0,0,1.4,1.508,1.261,1.261,0,0,0,1.252-.638Zm-3.653-1.7h2.658a1.27,1.27,0,0,0-1.3-1.363,1.346,1.346,0,0,0-1.363,1.363Z" transform="translate(-27.344 -7.667)" fill="#fff"/>
      <path id="Trazado_18433" data-name="Trazado 18433" d="M90.327,10.21h1v.836H91.4a1.575,1.575,0,0,1,1.57-.938A1.712,1.712,0,0,1,94.8,12.066v3.407H93.758V12.327c0-.846-.368-1.266-1.136-1.266a1.207,1.207,0,0,0-1.257,1.334v3.079H90.327Z" transform="translate(-26.45 -7.668)" fill="#fff"/>
      <path id="Trazado_18434" data-name="Trazado 18434" d="M102.459,14.051a2.136,2.136,0,0,1-2.28,1.523,2.39,2.39,0,0,1-2.431-2.716,2.427,2.427,0,0,1,2.426-2.749c1.464,0,2.348,1,2.348,2.653v.362H98.806v.058a1.391,1.391,0,0,0,1.4,1.508,1.261,1.261,0,0,0,1.252-.638Zm-3.653-1.7h2.658a1.27,1.27,0,0,0-1.3-1.363,1.346,1.346,0,0,0-1.363,1.363Z" transform="translate(-25.201 -7.667)" fill="#fff"/>
      <path id="Trazado_18435" data-name="Trazado 18435" d="M103.064,8.437H104.1v7.317h-1.039Z" transform="translate(-24.301 -7.949)" fill="#fff"/>
    </g>
  </g>
</svg>
