<svg id="Grupo_22098" data-name="Grupo 22098" xmlns="http://www.w3.org/2000/svg" width="112.671" height="119.1" viewBox="0 0 112.671 119.1">
  <path id="Trazado_18314" data-name="Trazado 18314" d="M868.833,380.1a2.467,2.467,0,0,1,.07.378,1.962,1.962,0,0,1-2.893.075,1.208,1.208,0,0,0,.023-.448Q867.433,380.1,868.833,380.1Z" transform="translate(-846.301 -380.1)" fill="#b0c4d7"/>
  <path id="Trazado_18317" data-name="Trazado 18317" d="M995.082,550.887c-5.441,0-10.882.089-16.319-.047-2.025-.051-2.609.313-2.31,2.529.686,5.1,2.077,9.772,6.384,12.968,7.177,5.324,19.674,4.4,23.445-6.9.625-1.867,1.722-1.615,2.991-1.619,4.508-.018,4.531,0,2.884,4.172-3.267,8.292-9.44,12.474-18.265,13.262-15.684,1.4-22.651-9.8-24.238-21.139A32.819,32.819,0,0,1,972,536.122c4.032-9.235,12.2-14.041,21.979-13.08,9.93.98,16.744,7.1,18.951,17.084a47.917,47.917,0,0,1,1.064,8.292c.084,1.881-.322,2.571-2.361,2.52C1006.118,550.793,1000.6,550.887,995.082,550.887Z" transform="translate(-901.389 -456.273)" fill="#333"/>
  <path id="Trazado_18318" data-name="Trazado 18318" d="M843.5,380.975c.961-.023,1.927-.047,2.888-.075a20.8,20.8,0,0,1,17.257,17.22c.177,1.162.061,2.3,1.969,1.349,1.843-.919,3.812-.285,5.5.859,5.077,3.435,10.178,6.841,15.19,10.369,3.071,2.161,3.556,4.886,1.5,8.064q-4.3,6.643-8.834,13.136c-2.567,3.668-5.208,4.106-8.955,1.652q-3.7-2.422-7.294-5c-.957-.691-1.465-.6-2.249.317-2.357,2.767-2.408,2.725-.588,5.777a10.39,10.39,0,0,1,.812,1.409,1.179,1.179,0,0,1-.485,1.615,1.1,1.1,0,0,1-1.577-.518c-.994-1.573-1.946-3.173-2.912-4.765a1.636,1.636,0,0,1,.392-2.1,22.78,22.78,0,0,0,1.937-2.319c.378-.574,1.587-.924.966-1.8a2.818,2.818,0,0,0-2.366-1.293c-1.7.093-3.4.285-5.1.415-.873.065-.919.56-.844,1.288.14,1.386.205,2.786.261,4.177.032.807-.345,1.409-1.2,1.381-.709-.019-1.045-.565-1.115-1.265-.107-1.078-.247-2.156-.355-3.239-.425-4.256-.425-4.265,3.789-4.727,1.125-.121,2.151-.168,1.041-1.694a4.18,4.18,0,0,1-.317-4.153c-1.545.075-2.945.219-4.176-.532a.972.972,0,0,0-1.4.275,10.983,10.983,0,0,1-1.367,1.265c-1.89,1.484-2.156,1.372-2.748-.961-.159-.625.369-1.951-1.3-1.251-4.307,1.806-4.578,1.568-4.05-3.178-1.507-.205-3.052.261-4.555-.387-1.8-.775-2.039-1.937-1.064-3.663-2.109-.56-4.228-.369-6.169-1.1-2.45-.914-2.9-2.394-1.008-4.13,4.932-4.526,10.724-6.692,17.481-5.828a4.077,4.077,0,0,0,1.825.1c1.95-.6,2.109-1.087.793-2.632-2.357-2.758-2.1-4.456.938-5.427-.943-1.769-2.375-3.229-3.033-5.128C842.546,383.21,842,381.95,843.5,380.975Z" transform="translate(-823.788 -380.527)" fill="#333"/>
  <path id="Trazado_18319" data-name="Trazado 18319" d="M925.951,559.593c-3.253,0-5.954-.033-8.656.019a2.4,2.4,0,0,1-1.951-1.045q-11.3-12.718-22.642-25.409c-.8-.9-.8-1.386.056-2.235q16.772-16.694,33.478-33.454a2.662,2.662,0,0,1,2-1.008c2.623.037,5.245.014,8.465.014-.9.924-1.442,1.5-2,2.058q-15.988,15.994-32.008,31.956c-1.181,1.172-1.325,1.787-.126,3.1,7.247,7.905,14.387,15.908,21.56,23.879C924.616,558.025,925.106,558.613,925.951,559.593Z" transform="translate(-860.221 -442.16)" fill="#333"/>
  <path id="Trazado_18320" data-name="Trazado 18320" d="M869.066,570.323c0-5.516.056-11.036-.037-16.552-.023-1.535.42-1.941,1.941-1.941,5.437,0,5.437-.056,5.437,5.432,0,9.944-.047,19.893.047,29.838.019,1.783-.485,2.2-2.212,2.179-5.17-.079-5.17,0-5.17-5.2Q869.064,577.2,869.066,570.323Z" transform="translate(-847.911 -471.692)" fill="#333"/>
  <path id="Trazado_18321" data-name="Trazado 18321" d="M824.07,552.316c2.1-1.069,4.317-.312,6.477-.429.789-.042.588.775.588,1.265q.021,17.346,0,34.691c0,.495.2,1.316-.579,1.274-2.16-.112-4.386.625-6.487-.42a2.3,2.3,0,0,0,.243-1.568q.007-16.624,0-33.244A2.273,2.273,0,0,0,824.07,552.316Z" transform="translate(-823.933 -471.641)" fill="#333"/>
  <path id="Trazado_18323" data-name="Trazado 18323" d="M937.246,412.628a16.267,16.267,0,0,1-7.032-1.293c-1.232-.56-2.343-1.3-2.314-2.893a2.935,2.935,0,0,1,2.235-2.692,18.489,18.489,0,0,1,14.055.117,2.933,2.933,0,0,1,2.133,2.791c-.046,1.4-1.087,2.174-2.268,2.707A15.691,15.691,0,0,1,937.246,412.628Z" transform="translate(-879.309 -393.07)" fill="#333"/>
  <path id="Trazado_18325" data-name="Trazado 18325" d="M1031.25,503.227c2.016-1.927,4.041-3.845,6.038-5.791a2.5,2.5,0,0,1,1.867-.765c2.389.023,4.779.009,7.947.009-2.594,2.52-4.736,4.592-6.864,6.673a1.935,1.935,0,0,1-1.5.462c-2.389,0-4.783,0-7.172,0C1031.455,503.618,1031.353,503.422,1031.25,503.227Z" transform="translate(-934.431 -442.271)" fill="#333"/>
  <path id="Trazado_18327" data-name="Trazado 18327" d="M823.777,528.2c.065-3.911-.513-3.29,3.785-3.332,3.449-.033,3.449,0,3.444,3.892,0,3.229,0,3.248-4.125,3.22C823.25,531.953,823.838,532.429,823.777,528.2Z" transform="translate(-823.775 -457.303)" fill="#333"/>
  <path id="Trazado_18330" data-name="Trazado 18330" d="M823.931,552.98c.724.6.467,1.428.467,2.17q.021,16.022,0,32.04c0,.742.257,1.573-.467,2.17-.042-8.423-.107-16.841-.121-25.264C823.8,560.39,823.888,556.685,823.931,552.98Z" transform="translate(-823.792 -472.306)" fill="#333"/>
  <path id="Trazado_18350" data-name="Trazado 18350" d="M984.99,551.719c.261-8.171,5.992-15.133,13.02-15.829,9.982-.985,17.285,5.7,17.276,15.8a2.823,2.823,0,0,1-2.2.513q-12.935.014-25.876,0A3.018,3.018,0,0,1,984.99,551.719Z" transform="translate(-909.758 -463.139)" fill="#fefefe"/>
  <path id="Trazado_18351" data-name="Trazado 18351" d="M984.99,569.888l30.3-.028c0,.173.009.35.019.523a2.6,2.6,0,0,1-1.578.219q-13.579.007-27.154,0a2.594,2.594,0,0,1-1.577-.219C984.99,570.219,984.99,570.051,984.99,569.888Z" transform="translate(-909.758 -481.308)" fill="#658eb5"/>
  <path id="Trazado_18352" data-name="Trazado 18352" d="M984.99,570.98H1015.3c-.527.649-1.269.457-1.941.457q-13.216.014-26.432,0C986.259,571.437,985.517,571.628,984.99,570.98Z" transform="translate(-909.758 -481.905)" fill="#5095d3"/>
  <path id="Trazado_18353" data-name="Trazado 18353" d="M902.665,425a5.067,5.067,0,0,1,2.758.98c4.881,3.318,9.772,6.613,14.625,9.972,2.319,1.605,2.562,2.944,1,5.3q-4.235,6.412-8.572,12.758c-1.717,2.5-2.94,2.833-5.423,1.2C902,451.884,897,448.458,892.048,444.977c-2.133-1.5-2.287-2.562-.877-4.713,2.977-4.545,6.034-9.039,9.048-13.556A3.35,3.35,0,0,1,902.665,425Z" transform="translate(-859.231 -404.047)" fill="#fefefe"/>
  <path id="Trazado_18354" data-name="Trazado 18354" d="M877.116,395.3c-3.743-1.825-5.642-5.278-7.756-8.624,4.051-.77,10.938,3.332,13.794,8.222,3.066,5.25,4.3,11.466-1.731,18.139-.915-2.273-1.652-4.517-3.22-6.323-.9-1.031.915-.919.807-1.806-3.029.21-4.909-2.268-7.677-3.2,1.246-1.33,2.781-.8,4.4-1.078-1.433-1.465-3.4-1.9-4.405-3.481-.392-.616-1.274-1.209-.742-1.974.486-.7,1.4-.406,2.161-.2.956.261,1.922.513,2.884.765C876.173,395.74,876.948,396.534,877.116,395.3Z" transform="translate(-848.088 -383.555)" fill="#fefefe"/>
  <path id="Trazado_18355" data-name="Trazado 18355" d="M842.795,425.822c-4.2,2.137-8.423,2-13.085.947a18.111,18.111,0,0,1,12.021-5.4c5.922-.373,12.226,1.923,15.026,7.728a6.359,6.359,0,0,1,.724,4.919,3.255,3.255,0,0,1-5.428,1.283,2.413,2.413,0,0,1-.369-3.183,1.536,1.536,0,0,1,2.245-.527c1.218.831-.019,1.783-.14,2.935,1.661-.35,3.094-.812,2.931-2.8-.145-1.806-2.319-3.2-4.158-2.842-2.767.532-4.181,2.986-3.5,6.076.322,1.451.322,1.451-.742,2.45-1.274-1.339-.322-2.907-.355-4.471-2.1.308-2.949,2.366-4.7,2.977-.252-1.209-.252-1.209,1.018-4.75-1.83-.14-3.388,1.19-5.185.835-.569-.112-1.386.257-1.615-.518-.191-.644.387-1.171.854-1.54.91-.719,1.918-1.311,2.861-1.988C841.862,427.479,842.664,427.1,842.795,425.822Z" transform="translate(-826.94 -402.089)" fill="#fefefe"/>
  <path id="Trazado_18356" data-name="Trazado 18356" d="M884.289,405.233c.48-.075.9,0,1.251.733a3.293,3.293,0,0,1-2.73-.289C883.309,405.555,883.9,405.733,884.289,405.233Z" transform="translate(-855.262 -393.493)" fill="#333"/>
  <path id="Trazado_18358" data-name="Trazado 18358" d="M932.69,411.55c3.612-2.478,10.85-2.352,13.8.154A16.682,16.682,0,0,1,932.69,411.55Z" transform="translate(-881.865 -395.917)" fill="#fdfcfc"/>
  <path id="Trazado_18364" data-name="Trazado 18364" d="M912.454,447.785a10.752,10.752,0,0,1-.924-1.876c-.322-1.134-2.053-2.548-.294-3.388,1.484-.709,1.727,1.316,2.338,2.277.485.765.835,1.619,1.363,2.669a33.96,33.96,0,0,1,1.983-2.847c.635-.742,1.069-2.394,2.371-1.559,1.33.854.033,1.876-.443,2.772-.5.938-1.386,1.661-1.629,2.861,1.578.187,3.1.359,4.63.551a1.132,1.132,0,0,1,1.134.98,1.074,1.074,0,0,1-1.162,1.181,36.61,36.61,0,0,1-3.706-.229c-.957-.079-1.348.2-.84,1.176s.994,1.937,1.419,2.935c.318.737.518,1.605-.439,2-.8.327-1.311-.345-1.643-.952-.686-1.265-1.288-2.581-2.025-4.083-1.05,1.465-1.881,2.679-2.763,3.85-.462.611-1.1.938-1.806.383-.649-.509-.3-1.1-.009-1.666.658-1.293,2.548-2.562,2.021-3.649-.555-1.148-2.693-.364-4.116-.616-.728-.131-1.433-.467-1.377-1.3.061-.905.868-.971,1.587-.966.775,0,1.554.037,2.329.061C911.17,448.34,912.122,449.171,912.454,447.785Z" transform="translate(-867.914 -413.313)" fill="#333"/>
  <path id="Trazado_18365" data-name="Trazado 18365" d="M916.938,453.97c0,1.134-.234,1.2-2,.56C915.589,454.283,916.429,454.726,916.938,453.97Z" transform="translate(-872.397 -419.498)" fill="#333"/>
</svg>
