<svg xmlns="http://www.w3.org/2000/svg" width="89.496" height="127.163" viewBox="0 0 89.496 127.163">
    <defs>
        <style>
            .cls-1{fill:#4efeb1}
        </style>
    </defs>
    <g id="Grupo_20741" transform="translate(-323.406 -1548.097)">
        <g id="Grupo_20739" transform="rotate(-13 7093.68 -629.45)">
            <path id="Trazado_987" d="M10.233 10.231L0 0h20.465z" class="cls-1" transform="translate(38.854 35.699)"/>
            <path id="Trazado_988" d="M0 0l23.621 23.622H0z" class="cls-1" transform="translate(35.698 7.613)"/>
            <path id="Trazado_989" d="M23.62 0v23.62H0z" class="cls-1" transform="translate(7.614 7.615)"/>
            <path id="Trazado_990" d="M10.232 0l10.232 10.232H0z" class="cls-1" transform="translate(7.614 52.243)"/>
            <path id="Trazado_991" d="M23.62 23.622L0 0h23.62z" class="cls-1" transform="translate(7.614 66.939)"/>
            <path id="Trazado_992" d="M0 23.622V0h23.621z" class="cls-1" transform="translate(35.698 66.939)"/>
            <path id="Trazado_993" d="M26.777 26.776L0 0h24.928L51.7 26.776z" class="cls-1" transform="translate(7.614 35.699)"/>
            <path id="Trazado_986" d="M66.908 64.382c-.008-.054-.016-.108-.027-.16s-.027-.1-.043-.156-.031-.108-.051-.16c-.008-.017-.012-.036-.02-.054s-.031-.062-.047-.1-.047-.1-.074-.145-.061-.1-.092-.146-.059-.086-.09-.127-.078-.093-.119-.138c-.021-.023-.039-.048-.062-.073L52.241 49.085l14.043-14.04c.023-.023.041-.049.062-.073.041-.046.082-.091.119-.139s.061-.083.09-.126.062-.1.092-.145.051-.1.074-.148c.016-.03.033-.06.047-.094.008-.019.012-.036.02-.055.02-.052.035-.1.051-.16s.031-.1.043-.155.019-.106.027-.16.018-.108.021-.162 0-.108 0-.16v-.165c0-.054-.014-.109-.021-.161s-.016-.11-.027-.161-.027-.1-.041-.155-.033-.108-.055-.162a.458.458 0 0 0-.018-.052c-.012-.034-.031-.062-.045-.093-.025-.053-.049-.1-.078-.152s-.057-.094-.088-.139-.061-.09-.094-.133-.074-.089-.111-.129-.043-.052-.066-.079L35.044.649c-.023-.024-.049-.042-.074-.066-.043-.038-.088-.076-.135-.113S34.749.406 34.7.375s-.092-.06-.139-.087-.1-.052-.154-.077C34.38.2 34.352.177 34.319.164a.3.3 0 0 1-.051-.017c-.054-.02-.109-.037-.168-.052s-.1-.031-.15-.043-.109-.019-.164-.028L33.63 0c-.053-.008-.111 0-.166 0h-.158c-.053 0-.111.011-.166.02s-.105.016-.156.028-.105.027-.158.043-.107.032-.16.052a.315.315 0 0 1-.053.017c-.033.013-.062.034-.094.047-.051.026-.1.049-.15.077s-.094.06-.141.087-.09.062-.133.095-.088.074-.129.111c-.025.023-.055.042-.078.069L.648 31.888c-.025.026-.043.053-.066.079a1.6 1.6 0 0 0-.113.129c-.033.043-.064.087-.094.133s-.061.091-.088.139-.053.1-.076.152c-.016.031-.033.059-.047.093-.008.017-.01.034-.018.052-.02.054-.037.108-.053.162s-.031.1-.043.155-.02.106-.027.161-.015.107-.023.157 0 .109 0 .162v.163c0 .054.012.106.02.162s.016.106.027.16.027.1.043.153.033.11.053.162c.008.019.01.038.018.055.014.032.031.062.047.092.023.051.049.1.076.153s.057.093.088.138.061.09.094.134.074.087.113.131c.021.024.041.053.066.077l14.046 14.043L.648 63.128c-.025.027-.043.053-.066.079-.039.041-.078.084-.113.129s-.064.088-.094.135-.061.091-.088.139-.053.1-.076.151c-.016.031-.033.06-.047.092s-.01.036-.018.053c-.02.053-.037.108-.053.162s-.031.1-.043.155-.02.106-.027.161-.016.108-.02.161 0 .107 0 .162v.162c0 .054.012.107.02.163s.016.107.027.16.027.1.043.153.033.109.053.163c.008.017.01.037.018.055s.031.06.047.091c.023.052.049.1.076.153s.057.094.088.139.061.088.094.131.074.09.113.133c.021.024.041.052.066.076l31.24 31.24c.016.017.037.028.055.045a2.129 2.129 0 0 0 .232.19c.031.022.061.045.092.064a2.158 2.158 0 0 0 .346.183 2.081 2.081 0 0 0 .379.113 2.184 2.184 0 0 0 .473.056 2.505 2.505 0 0 0 .851-.168 2.157 2.157 0 0 0 .346-.183c.031-.02.061-.042.09-.062a2.434 2.434 0 0 0 .238-.195c.016-.017.035-.025.051-.042l31.242-31.24c.023-.023.043-.052.066-.076.039-.043.076-.086.111-.133s.064-.088.1-.131.059-.092.086-.139.053-.1.078-.153c.014-.031.033-.059.045-.091s.012-.038.018-.055c.021-.053.037-.107.055-.163s.029-.1.041-.153.019-.107.027-.16.018-.107.021-.163 0-.108 0-.162v-.162c0-.054-.015-.109-.023-.164zM49.086 45.931L38.853 35.7h20.466zM35.7 7.614l23.619 23.621H35.7zm-4.463 0v23.621H7.615zM17.846 52.243l10.233 10.232H7.615zm13.388 38.316L7.615 66.938h23.619zm4.463 0V66.938h23.622zm-1.306-28.084L7.615 35.7h24.927l26.777 26.775z"/>
        </g>
        <g id="Grupo_20740" transform="rotate(2 -44032.012 11031.666)">
            <path id="Trazado_12931" d="M2.309 16.159a2.309 2.309 0 0 0 2.309-2.309V2.309a2.309 2.309 0 1 0-4.618 0v11.54a2.309 2.309 0 0 0 2.309 2.31zm0 0" transform="rotate(29 -1.18 63.328)"/>
            <path id="Trazado_12932" d="M2.309 12.693a2.3 2.3 0 0 0 1.633-.677l8.074-8.073A2.31 2.31 0 1 0 8.75.677L.677 8.75a2.31 2.31 0 0 0 1.633 3.943zm0 0" transform="rotate(29 -18.39 94.766)"/>
            <path id="Trazado_12933" d="M8.75 12.016a2.309 2.309 0 0 0 3.266-3.266L3.942.677A2.309 2.309 0 0 0 .677 3.942zm0 0" transform="rotate(29 3.076 11.893)"/>
        </g>
    </g>
</svg>
