<?xml version="1.0" encoding="utf-8"?>
<!-- Generator: Adobe Illustrator 21.0.0, SVG Export Plug-In . SVG Version: 6.00 Build 0)  -->
<svg version="1.1" id="Layer_1" xmlns="http://www.w3.org/2000/svg" xmlns:xlink="http://www.w3.org/1999/xlink" x="0px" y="0px"
	 viewBox="0 0 42.6 39.5" style="enable-background:new 0 0 42.6 39.5;" xml:space="preserve">
<style type="text/css">
	.st0{fill:#41FFAF;}
</style>
<g id="Group_1406" transform="translate(-357.004 -2957.018)">
	<g id="Group_1405">
		<g id="Group_1403">
			<path id="Path_1625" class="st0" d="M357,2996.5l42.6-37.3v37.3H357z"/>
		</g>
		<g id="Group_1404">
			<path id="Path_1626" d="M375.2,2965.6c0.3,0,0.6-0.3,0.6-0.6s-0.3-0.6-0.6-0.6c-0.3,0-0.6,0.3-0.6,0.6c0,0.2,0.1,0.3,0.2,0.4
				C374.9,2965.5,375.1,2965.6,375.2,2965.6z"/>
			<path id="Path_1627" d="M390.5,2985.1h-0.7v-1.9c0-0.3-0.3-0.6-0.6-0.6l0,0h-0.4v-1c0-0.7-0.4-1.2-1-1.5v-2.1
				c0-0.3-0.3-0.6-0.6-0.6s-0.6,0.3-0.6,0.6v2h-1.2v-8.8h1.2v2c0,0.3,0.3,0.6,0.6,0.6s0.6-0.3,0.6-0.6v-2.1c0.6-0.3,1-0.8,1-1.5v-1
				h0.4c0.3,0,0.6-0.3,0.6-0.6l0,0v-2.4h0.1c0.3,0,0.6-0.3,0.6-0.6c0-0.2-0.1-0.4-0.3-0.6l-14.6-7.3c-0.2-0.1-0.4-0.1-0.6,0
				l-14.6,7.3c-0.3,0.2-0.4,0.5-0.3,0.8c0.1,0.2,0.3,0.3,0.6,0.3h0.1v2.4c0,0.3,0.3,0.6,0.6,0.6l0,0h0.4v1c0,0.7,0.4,1.2,1,1.5v9.1
				c-0.6,0.3-1,0.8-1,1.5v1h-0.4c-0.3,0-0.6,0.3-0.6,0.6l0,0v1.9h-0.7c-0.3,0-0.6,0.3-0.6,0.6l0,0v2.5c0,0.3,0.3,0.6,0.6,0.6h30.6
				c0.3,0,0.6-0.3,0.6-0.6v-2.5C391.1,2985.4,390.9,2985.1,390.5,2985.1z M387.2,2981.2c0.2,0,0.4,0.2,0.4,0.4v1h-3.2v-1
				c0-0.2,0.2-0.4,0.4-0.4l0,0H387.2z M381.7,2982.6v-1c0-0.7-0.4-1.2-1-1.5v-9.1c0.6-0.3,1-0.8,1-1.5v-1h1.4v1c0,0.7,0.4,1.2,1,1.5
				v9.1c-0.6,0.3-1,0.8-1,1.5v1H381.7z M374.5,2982.6v-1c0-0.7-0.4-1.2-1-1.5v-9.1c0.6-0.3,1-0.8,1-1.5v-1h1.4v1
				c0,0.7,0.4,1.2,1,1.5v9.1c-0.6,0.3-1,0.8-1,1.5v1H374.5z M367.4,2982.6v-1c0-0.7-0.4-1.2-1-1.5v-9.1c0.6-0.3,1-0.8,1-1.5v-1h1.4
				v1c0,0.7,0.4,1.2,1,1.5v9.1c-0.6,0.3-1,0.8-1,1.5v1H367.4z M363.9,2971.2h1.2v8.8h-1.2V2971.2z M371.1,2971.2h1.2v8.8h-1.2
				V2971.2z M373.3,2969.5c0,0.2-0.2,0.4-0.4,0.4l0,0h-2.5c-0.2,0-0.4-0.2-0.4-0.4l0,0v-1h3.2L373.3,2969.5L373.3,2969.5z
				 M370.1,2981.6c0-0.2,0.2-0.4,0.4-0.4l0,0h2.5c0.2,0,0.4,0.2,0.4,0.4l0,0v1h-3.2L370.1,2981.6L370.1,2981.6z M378.2,2971.2h1.2
				v8.8h-1.2V2971.2z M380.4,2969.5c0,0.2-0.2,0.4-0.4,0.4l0,0h-2.4c-0.2,0-0.4-0.2-0.4-0.4l0,0v-1h3.2L380.4,2969.5z M377.2,2981.6
				c0-0.2,0.2-0.4,0.4-0.4h2.5c0.2,0,0.4,0.2,0.4,0.4v1h-3.2L377.2,2981.6L377.2,2981.6z M387.5,2969.5c0,0.2-0.2,0.4-0.4,0.4l0,0
				h-2.5c-0.2,0-0.4-0.2-0.4-0.4l0,0v-1h3.2L387.5,2969.5z M372.2,2965.6c0.3,0,0.6-0.3,0.6-0.6s-0.3-0.6-0.6-0.6l0,0h-8.9l12-6
				l12,6h-8.7c-0.3,0-0.6,0.3-0.6,0.6s0.3,0.6,0.6,0.6l0,0h10v1.7H362v-1.7H372.2z M366.2,2968.6v1c0,0.2-0.2,0.4-0.4,0.4l0,0h-2.5
				c-0.2,0-0.4-0.2-0.4-0.4l0,0v-1H366.2z M362.9,2981.6c0-0.2,0.2-0.4,0.4-0.4h2.5c0.2,0,0.4,0.2,0.4,0.4v1H363L362.9,2981.6z
				 M361.9,2983.8h26.6v1.2h-26.6V2983.8z M389.9,2987.6h-29.3v-1.2h29.3V2987.6z"/>
			<path id="Path_1628" d="M387.2,2975c-0.3,0-0.6,0.3-0.6,0.6s0.3,0.6,0.6,0.6c0.3,0,0.6-0.3,0.6-0.6c0-0.2-0.1-0.3-0.2-0.4
				C387.5,2975,387.3,2975,387.2,2975z"/>
		</g>
	</g>
</g>
</svg>
